^C:\DOCUMENTS\VISUAL STUDIO 2022\PROJECTS\HELPERSHW\HELPERSHW\HELPERS.CPP
/c /ZI /JMC /nologo /W3 /WX- /diagnostics:column /sdl /Od /D _DEBUG /D _CONSOLE /D _UNICODE /D UNICODE /Gm- /EHsc /RTC1 /MDd /GS /fp:precise /Zc:wchar_t /Zc:forScope /Zc:inline /permissive- /Fo"X64\DEBUG\\" /Fd"X64\DEBUG\VC143.PDB" /external:W3 /Gd /TP /FC C:\DOCUMENTS\VISUAL STUDIO 2022\PROJECTS\HELPERSHW\HELPERSHW\HELPERS.CPP
^C:\DOCUMENTS\VISUAL STUDIO 2022\PROJECTS\HELPERSHW\HELPERSHW\HELPERSHW.CPP
/c /ZI /JMC /nologo /W3 /WX- /diagnostics:column /sdl /Od /D _DEBUG /D _CONSOLE /D _UNICODE /D UNICODE /Gm- /EHsc /RTC1 /MDd /GS /fp:precise /Zc:wchar_t /Zc:forScope /Zc:inline /permissive- /Fo"X64\DEBUG\\" /Fd"X64\DEBUG\VC143.PDB" /external:W3 /Gd /TP /FC C:\DOCUMENTS\VISUAL STUDIO 2022\PROJECTS\HELPERSHW\HELPERSHW\HELPERSHW.CPP
