^C:\DOCUMENTS\VISUAL STUDIO 2022\PROJECTS\HELPERSHW\HELPERSHW\X64\RELEASE\HELPERS.OBJ|C:\DOCUMENTS\VISUAL STUDIO 2022\PROJECTS\HELPERSHW\HELPERSHW\X64\RELEASE\HELPERSHW.OBJ
/OUT:"C:\DOCUMENTS\VISUAL STUDIO 2022\PROJECTS\HELPERSHW\X64\RELEASE\HELPERSHW.EXE" /NOLOGO KERNEL32.LIB USER32.LIB GDI32.LIB WINSPOOL.LIB COMDLG32.LIB ADVAPI32.LIB SHELL32.LIB OLE32.LIB OLEAUT32.LIB UUID.LIB ODBC32.LIB ODBCCP32.LIB /MANIFEST /MANIFESTUAC:"level='asInvoker' uiAccess='false'" /manifest:embed /DEBUG /PDB:"C:\DOCUMENTS\VISUAL STUDIO 2022\PROJECTS\HELPERSHW\X64\RELEASE\HELPERSHW.PDB" /SUBSYSTEM:CONSOLE /OPT:REF /OPT:ICF /LTCG:incremental /LTCGOUT:"X64\RELEASE\HELPERSHW.IOBJ" /TLBID:1 /DYNAMICBASE /NXCOMPAT /IMPLIB:"C:\DOCUMENTS\VISUAL STUDIO 2022\PROJECTS\HELPERSHW\X64\RELEASE\HELPERSHW.LIB" /MACHINE:X64 X64\RELEASE\HELPERS.OBJ
X64\RELEASE\HELPERSHW.OBJ
